…
``` r
metrics_reduced_model_data <- metrics_reduced_model_data %>%
  mutate(team = if_else(team == "ND", "Notre Dame", team)) 

by_pitch <- metrics_reduced_model_data %>%
  filter(team == "Notre Dame") %>%
  group_by(player, tagged_pitch_type) %>%
  count()

by_pitch
```

    ## # A tibble: 54 x 3
    ## # Groups:   player, tagged_pitch_type [54]
    ##    player        tagged_pitch_type     n
    ##    <chr>         <fct>             <int>
    ##  1 Aidan Tyrell  ChangeUp             13
    ##  2 Aidan Tyrell  Curveball             4
    ##  3 Aidan Tyrell  Fastball             67
    ##  4 Aidan Tyrell  Slider               28
    ##  5 Alex Rao      ChangeUp             43
    ##  6 Alex Rao      Curveball             1
    ##  7 Alex Rao      Fastball             69
    ##  8 Alex Rao      Slider                3
    ##  9 Austin Temple ChangeUp              6
    ## 10 Austin Temple Curveball            45
    ## # ... with 44 more rows
…
``` r
by_pitcher_joined <- by_pitch %>%
  left_join(by_total_pitches,
            by = "player") %>%
  mutate(pitch_split = n.x / n.y) %>%
  select(-c(n.x, n.y)) %>%
  filter(pitch_split >= 0.2)

by_pitcher_joined
```

    ## # A tibble: 29 x 3
    ## # Groups:   player, tagged_pitch_type [29]
    ##    player         tagged_pitch_type pitch_split
    ##    <chr>          <fct>                   <dbl>
    ##  1 Aidan Tyrell   Fastball                0.598
    ##  2 Aidan Tyrell   Slider                  0.25 
    ##  3 Alex Rao       ChangeUp                0.371
    ##  4 Alex Rao       Fastball                0.595
    ##  5 Austin Temple  Curveball               0.273
    ##  6 Austin Temple  Fastball                0.448
    ##  7 Austin Temple  Slider                  0.242
    ##  8 Jack Brannigan Fastball                0.5  
    ##  9 Jack Brannigan Slider                  0.279
    ## 10 Jack Findlay   Fastball                0.768
    ## # ... with 19 more rows
…
bounded_results_matrix <- metric_results_matrix_list %>%
  bind_rows() %>%
  mutate(across(1:25, as.character)) %>%
  mutate(across(1:25, as.integer))


head(bounded_results_matrix, 200)
```

    ## # A tibble: 200 x 52
    ##    postpitch_1 postpitch_2 postpitch_3 postpitch_4 postpitch_5 postpitch_6
    ##          <int>       <int>       <int>       <int>       <int>       <int>
    ##  1           1           0           0           0           0           0
    ##  2           0           1           0           0           0           0
    ##  3           0           0           1           0           0           0
    ##  4           0           0           0           1           0           0
    ##  5           0           0           0           0           1           0
    ##  6           0           0           0           0           0           1
    ##  7           0           0           0           0           0           0
    ##  8           0           0           0           0           0           0
    ##  9           0           0           0           0           0           0
    ## 10           0           0           0           0           0           0
    ## # ... with 190 more rows, and 46 more variables: postpitch_7 <int>,
    ## #   postpitch_8 <int>, postpitch_9 <int>, postpitch_10 <int>,
    ## #   postpitch_11 <int>, postpitch_12 <int>, postpitch_13 <int>,
    ## #   postpitch_14 <int>, postpitch_15 <int>, postpitch_16 <int>,
    ## #   postpitch_17 <int>, postpitch_18 <int>, postpitch_19 <int>,
    ## #   postpitch_20 <int>, postpitch_21 <int>, postpitch_22 <int>,
    ## #   postpitch_23 <int>, postpitch_24 <int>, postpitch_25 <int>, ...
…
``` r
bertrand_model1_data <- final_metric_strike_data %>%
  filter(player == "John Michael Bertrand",
         batter_side == "Right",
         tagged_pitch_type == "Fastball") %>%
  select(-c(26:28)) %>%
  na_mean()

rownames(bertrand_model1_data) <- NULL

bertrand_model1_data
```

    ## # A tibble: 34 x 48
    ##    postpitch_1 postpitch_2 postpitch_3 postpitch_4 postpitch_5 postpitch_6
    ##          <int>       <int>       <int>       <int>       <int>       <int>
    ##  1           0           0           0           0           0           0
    ##  2           0           0           0           0           0           0
    ##  3           0           0           0           0           0           0
    ##  4           0           0           0           0           0           0
    ##  5           0           0           0           0           0           0
    ##  6           0           0           0           0           0           0
    ##  7           0           0           0           0           0           0
    ##  8           0           0           0           0           0           0
    ##  9           0           0           0           0           0           0
    ## 10           0           0           0           0           0           0
    ## # ... with 24 more rows, and 42 more variables: postpitch_7 <int>,
    ## #   postpitch_8 <int>, postpitch_9 <int>, postpitch_10 <int>,
    ## #   postpitch_11 <int>, postpitch_12 <int>, postpitch_13 <int>,
    ## #   postpitch_14 <int>, postpitch_15 <int>, postpitch_16 <int>,
    ## #   postpitch_17 <int>, postpitch_18 <int>, postpitch_19 <int>,
    ## #   postpitch_20 <int>, postpitch_21 <int>, postpitch_22 <int>,
    ## #   postpitch_23 <int>, postpitch_24 <int>, postpitch_25 <int>, ops <dbl>, ...
…
``` r
bertrand_model2_data <- final_metric_ball_data %>%
  filter(player == "John Michael Bertrand",
         batter_side == "Right",
         tagged_pitch_type == "Fastball") %>%
  select(-c(26:28)) %>%
  na_mean()

rownames(bertrand_model2_data) <- NULL

bertrand_model2_data
```

    ## # A tibble: 30 x 48
    ##    postpitch_1 postpitch_2 postpitch_3 postpitch_4 postpitch_5 postpitch_6
    ##          <int>       <int>       <int>       <int>       <int>       <int>
    ##  1           0           0           0           0           0           0
    ##  2           0           0           0           0           0           0
    ##  3           0           0           0           0           1           0
    ##  4           0           1           0           0           0           0
    ##  5           0           0           0           0           0           1
    ##  6           0           0           0           0           0           0
    ##  7           0           0           0           0           0           0
    ##  8           0           0           0           0           0           0
    ##  9           0           0           0           0           0           0
    ## 10           0           0           0           0           0           0
    ## # ... with 20 more rows, and 42 more variables: postpitch_7 <int>,
    ## #   postpitch_8 <int>, postpitch_9 <int>, postpitch_10 <int>,
    ## #   postpitch_11 <int>, postpitch_12 <int>, postpitch_13 <int>,
    ## #   postpitch_14 <int>, postpitch_15 <int>, postpitch_16 <int>,
    ## #   postpitch_17 <int>, postpitch_18 <int>, postpitch_19 <int>,
    ## #   postpitch_20 <int>, postpitch_21 <int>, postpitch_22 <int>,
    ## #   postpitch_23 <int>, postpitch_24 <int>, postpitch_25 <int>, ops <dbl>, ...
…
test_row_2 <- bounded_results_matrix %>%
  filter(player == "John Michael Bertrand",
         batter_side == "Right",
         tagged_pitch_type == "Fastball") %>%
  select(-c("preds", "player", "batter_side", "tagged_pitch_type", "model_number", "pitch_split")) 

test_row_2$ball_called <- as.factor(0)

test_row_2
```

    ## # A tibble: 25 x 48
    ##    postpitch_1 postpitch_2 postpitch_3 postpitch_4 postpitch_5 postpitch_6
    ##          <int>       <int>       <int>       <int>       <int>       <int>
    ##  1           1           0           0           0           0           0
    ##  2           0           1           0           0           0           0
    ##  3           0           0           1           0           0           0
    ##  4           0           0           0           1           0           0
    ##  5           0           0           0           0           1           0
    ##  6           0           0           0           0           0           1
    ##  7           0           0           0           0           0           0
    ##  8           0           0           0           0           0           0
    ##  9           0           0           0           0           0           0
    ## 10           0           0           0           0           0           0
    ## # ... with 15 more rows, and 42 more variables: postpitch_7 <int>,
    ## #   postpitch_8 <int>, postpitch_9 <int>, postpitch_10 <int>,
    ## #   postpitch_11 <int>, postpitch_12 <int>, postpitch_13 <int>,
    ## #   postpitch_14 <int>, postpitch_15 <int>, postpitch_16 <int>,
    ## #   postpitch_17 <int>, postpitch_18 <int>, postpitch_19 <int>,
    ## #   postpitch_20 <int>, postpitch_21 <int>, postpitch_22 <int>,
    ## #   postpitch_23 <int>, postpitch_24 <int>, postpitch_25 <int>, ops <dbl>, ...
…
``` r
head(final_bounded_results_matrix_ball, 50)
```

    ## # A tibble: 50 x 9
    ##     zone player       batter_side tagged_pitch_type preds total_zone_diff
    ##    <int> <chr>        <fct>       <fct>             <dbl>           <int>
    ##  1     3 Aidan Tyrell Left        Fastball           0.98             268
    ##  2     4 Aidan Tyrell Left        Fastball           0.98             268
    ##  3     5 Aidan Tyrell Left        Fastball           0.98             268
    ##  4    10 Aidan Tyrell Left        Fastball           0.96             268
    ##  5    11 Aidan Tyrell Left        Fastball           0.98             268
    ##  6    15 Aidan Tyrell Left        Fastball           0.98             268
    ##  7    20 Aidan Tyrell Left        Fastball           0.98             268
    ##  8    22 Aidan Tyrell Left        Fastball           0.98             268
    ##  9    24 Aidan Tyrell Left        Fastball           0.98             268
    ## 10    25 Aidan Tyrell Left        Fastball           0.98             268
    ## # ... with 40 more rows, and 3 more variables: zone_diff_per_pitch <dbl>,
    ## #   total_misses_by_zone_side_type <int>, total_pitches_by_zone_side_type <int>
…
## CZR Scores Analysis Workspace

As mentioned, the final CZR table, as well as its associated predictions
table, allows for various calculations and analysis by zone. The
following space serves as for additional visualizations, aggregations,
and grouping based on the structure of the prediction results:

``` r
final_bounded_results %>%
  filter(player == "John Michael Bertrand",
         batter_side == "Right",
         tagged_pitch_type == "Fastball")
```

    ## # A tibble: 21 x 9
    ##     zone player               batter_side tagged_pitch_ty~ preds total_zone_diff
    ##    <int> <chr>                <fct>       <fct>            <dbl>           <int>
    ##  1     2 John Michael Bertra~ Right       Fastball          0.77             692
    ##  2     3 John Michael Bertra~ Right       Fastball          0.8              692
    ##  3     5 John Michael Bertra~ Right       Fastball          0.8              692
    ##  4     6 John Michael Bertra~ Right       Fastball          0.8              692
    ##  5    11 John Michael Bertra~ Right       Fastball          0.78             692
    ##  6    15 John Michael Bertra~ Right       Fastball          0.73             692
    ##  7    16 John Michael Bertra~ Right       Fastball          0.8              692
    ##  8    20 John Michael Bertra~ Right       Fastball          0.79             692
    ##  9    22 John Michael Bertra~ Right       Fastball          0.8              692
    ## 10    23 John Michael Bertra~ Right       Fastball          0.8              692
    ## # ... with 11 more rows, and 3 more variables: zone_diff_per_pitch <dbl>,
    ## #   total_misses_by_zone_side_type <int>, total_pitches_by_zone_side_type <int>
…
